{
  "results": {
    "current_page": 1,
    "data": {
      "0": {
        "id": 648,
        "product_type": 1,
        "type_id": 1,
        "size": "Large",
        "height": "--",
        "width": "--",
        "around": "--",
        "image_path_1": "/static/assets/img/img1.jpg",
        "image_path_2": "/static/assets/img/img2.jpg",
        "image_path_3": "/static/assets/img/img3.jpg",
        "image_path_4": "",
        "image_path_5": "",
        "sales_status": 3,
        "sales_status_comment": null,
        "feature": [],
        "selling_price_val": "ASK",
        "selling_date": "--",
        "stock_flag_val": "\u4ef2\u4ecb",
        "sales_status_val": "Sold out"
      },
      "1": {
        "id": 375,
        "product_type": 1,
        "type_id": 1,
        "size": "Large",
        "height": 400,
        "width": 400,
        "around": 95,
        "image_path_1": "/static/assets/img/img1.jpg",
        "image_path_2": "/static/assets/img/img2.jpg",
        "image_path_3": "",
        "image_path_4": "",
        "image_path_5": "",
        "sales_status": 1,
        "sales_status_comment": "\u9e7f\u5150\u5cf6\u3000\u6771\u3055\u3093",
        "feature": [],
        "selling_price_val": "ASK",
        "selling_date": "--",
        "stock_flag_val": "\u4ef2\u4ecb",
        "sales_status_val": "In stock"
      },
      "2": {
        "id": 637,
        "product_type": 1,
        "type_id": 1,
        "size": "Middium",
        "height": 500,
        "width": 280,
        "around": 95,
        "image_path_1": "/static/assets/img/img1.jpg",
        "image_path_2": "/static/assets/img/img2.jpg",
        "image_path_3": "",
        "image_path_4": "",
        "image_path_5": "",
        "sales_status": 1,
        "sales_status_comment": "\u7a32\u6ca2 \u6e21\u8fba\u8133\u708e",
        "feature": [],
        "selling_price_val": "ASK",
        "selling_date": "--",
        "stock_flag_val": "\u4ef2\u4ecb",
        "sales_status_val": "In stock"
      },
      "3": {
        "id": 629,
        "product_type": 1,
        "type_id": 6,
        "size": "Large",
        "height": 100,
        "width": 65,
        "around": "--",
        "image_path_1": "/static/assets/img/img1.jpg",
        "image_path_2": "",
        "image_path_3": "",
        "image_path_4": "",
        "image_path_5": "",
        "sales_status": 1,
        "sales_status_comment": "\u4e0a\u6d77",
        "feature": [],
        "selling_price_val": "ASK",
        "selling_date": "--",
        "stock_flag_val": "\u4ef2\u4ecb",
        "sales_status_val": "In stock"
      },
      "4": {
        "id": 628,
        "product_type": 2,
        "type_id": 7,
        "size": "Middium",
        "height": 70,
        "width": 50,
        "around": "--",
        "image_path_1": "/static/assets/img/img1.jpg",
        "image_path_2": "",
        "image_path_3": "",
        "image_path_4": "",
        "image_path_5": "",
        "sales_status": 1,
        "sales_status_comment": "\u4e0a\u6d77",
        "feature": [],
        "selling_price_val": "ASK",
        "selling_date": "--",
        "stock_flag_val": "\u4ef2\u4ecb",
        "sales_status_val": "In stock"
      },
      "5": {
        "id": 627,
        "product_type": 2,
        "type_id": 6,
        "size": "Large",
        "height": 70,
        "width": 50,
        "around": "--",
        "image_path_1": "/static/assets/img/img1.jpg",
        "image_path_2": "",
        "image_path_3": "",
        "image_path_4": "",
        "image_path_5": "",
        "sales_status": 1,
        "sales_status_comment": "\u4e0a\u6d77",
        "feature": [],
        "selling_price_val": "ASK",
        "selling_date": "--",
        "stock_flag_val": "\u4ef2\u4ecb",
        "sales_status_val": "In stock"
      },
      "6": {
        "id": 626,
        "product_type": 2,
        "type_id": 9,
        "size": "Large",
        "height": 70,
        "width": 120,
        "around": "--",
        "image_path_1": "/static/assets/img/img1.jpg",
        "image_path_2": "",
        "image_path_3": "",
        "image_path_4": "",
        "image_path_5": "",
        "sales_status": 1,
        "sales_status_comment": "\u4e0a\u6d77",
        "feature": [],
        "selling_price_val": "ASK",
        "selling_date": "--",
        "stock_flag_val": "\u4ef2\u4ecb",
        "sales_status_val": "In stock"
      },
      "7": {
        "id": 625,
        "product_type": 2,
        "type_id": 2,
        "size": "Large",
        "height": 160,
        "width": 110,
        "around": "--",
        "image_path_1": "/static/assets/img/img1.jpg",
        "image_path_2": "/static/assets/img/img2.jpg",
        "image_path_3": "",
        "image_path_4": "",
        "image_path_5": "",
        "sales_status": 1,
        "sales_status_comment": "\u5ca1\u5c71\u3000\u5927\u5cf6\u3055\u3093",
        "feature": [],
        "selling_price_val": "ASK",
        "selling_date": "--",
        "stock_flag_val": "\u4ef2\u4ecb",
        "sales_status_val": "In stock"
      },
      "8": {
        "id": 623,
        "product_type": 2,
        "type_id": 2,
        "size": "Large",
        "height": 110,
        "width": 60,
        "around": "--",
        "image_path_1": "/static/assets/img/img1.jpg",
        "image_path_2": "/static/assets/img/img2.jpg",
        "image_path_3": "",
        "image_path_4": "",
        "image_path_5": "",
        "sales_status": 1,
        "sales_status_comment": "\u5ca1\u5c71\u3000\u5927\u5cf6\u3055\u3093",
        "feature": [],
        "selling_price_val": "ASK",
        "selling_date": "--",
        "stock_flag_val": "\u4ef2\u4ecb",
        "sales_status_val": "In stock"
      },
      "9": {
        "id": 621,
        "product_type": 1,
        "type_id": 7,
        "size": "Large",
        "height": 300,
        "width": 180,
        "around": 60,
        "image_path_1": "/static/assets/img/img1.jpg",
        "image_path_2": "/static/assets/img/img2.jpg",
        "image_path_3": "",
        "image_path_4": "",
        "image_path_5": "",
        "sales_status": 1,
        "sales_status_comment": "50\u672c\u30bb\u30c3\u30c8\u3001\uff15\u672c\u7a0b\u5ea6\u306f\u304b\u306a\u308a\u3044\u3044\u5bd2\u693f\u3000\u30bb\u30c3\u30c8\u3067\uff20\uff11\uff15\u4e07\uff0b\u30d4\u30fc\u30c8\u3001\u6839\u6d17\u3044\uff12\u4e07\u3002\u4e2d\u56fd\u306a\u3089\u6301\u3063\u3066\u884c\u3063\u3066\uff20\uff14\u4e07\u5143",
        "feature": [],
        "selling_price_val": "ASK",
        "selling_date": "--",
        "stock_flag_val": "\u4ef2\u4ecb",
        "sales_status_val": "In stock"
      },
      "data": [
        {
          "id": 648,
          "product_type": 1,
          "type_id": 1,
          "size": "Large",
          "height": "--",
          "width": "--",
          "around": "--",
          "image_path_1": "/static/assets/img/img1.jpg",
          "image_path_2": "/static/assets/img/img2.jpg",
          "image_path_3": "/static/assets/img/img3.jpg",
          "image_path_4": "",
          "image_path_5": "",
          "sales_status": 3,
          "sales_status_comment": null,
          "feature": [],
          "selling_price_val": "ASK",
          "selling_date": "--",
          "stock_flag_val": "\u4ef2\u4ecb",
          "sales_status_val": "Sold out"
        },
        {
          "id": 375,
          "product_type": 1,
          "type_id": 1,
          "size": "Large",
          "height": 400,
          "width": 400,
          "around": 95,
          "image_path_1": "/static/assets/img/img1.jpg",
          "image_path_2": "/static/assets/img/img2.jpg",
          "image_path_3": "",
          "image_path_4": "",
          "image_path_5": "",
          "sales_status": 1,
          "sales_status_comment": "\u9e7f\u5150\u5cf6\u3000\u6771\u3055\u3093",
          "feature": [],
          "selling_price_val": "ASK",
          "selling_date": "--",
          "stock_flag_val": "\u4ef2\u4ecb",
          "sales_status_val": "In stock"
        },
        {
          "id": 637,
          "product_type": 1,
          "type_id": 1,
          "size": "Middium",
          "height": 500,
          "width": 280,
          "around": 95,
          "image_path_1": "/static/assets/img/img1.jpg",
          "image_path_2": "/static/assets/img/img2.jpg",
          "image_path_3": "",
          "image_path_4": "",
          "image_path_5": "",
          "sales_status": 1,
          "sales_status_comment": "\u7a32\u6ca2 \u6e21\u8fba\u8133\u708e",
          "feature": [],
          "selling_price_val": "ASK",
          "selling_date": "--",
          "stock_flag_val": "\u4ef2\u4ecb",
          "sales_status_val": "In stock"
        },
        {
          "id": 629,
          "product_type": 1,
          "type_id": 6,
          "size": "Large",
          "height": 100,
          "width": 65,
          "around": "--",
          "image_path_1": "/static/assets/img/img1.jpg",
          "image_path_2": "",
          "image_path_3": "",
          "image_path_4": "",
          "image_path_5": "",
          "sales_status": 1,
          "sales_status_comment": "\u4e0a\u6d77",
          "feature": [],
          "selling_price_val": "ASK",
          "selling_date": "--",
          "stock_flag_val": "\u4ef2\u4ecb",
          "sales_status_val": "In stock"
        },
        {
          "id": 628,
          "product_type": 2,
          "type_id": 7,
          "size": "Middium",
          "height": 70,
          "width": 50,
          "around": "--",
          "image_path_1": "/static/assets/img/img1.jpg",
          "image_path_3": "",
          "image_path_4": "",
          "image_path_5": "",
          "sales_status": 1,
          "sales_status_comment": "\u4e0a\u6d77",
          "feature": [],
          "selling_price_val": "ASK",
          "selling_date": "--",
          "stock_flag_val": "\u4ef2\u4ecb",
          "sales_status_val": "In stock"
        },
        {
          "id": 627,
          "product_type": 2,
          "type_id": 6,
          "size": "Large",
          "height": 70,
          "width": 50,
          "around": "--",
          "image_path_1": "/static/assets/img/img1.jpg",
          "image_path_2": "",
          "image_path_3": "",
          "image_path_4": "",
          "image_path_5": "",
          "sales_status": 1,
          "sales_status_comment": "\u4e0a\u6d77",
          "feature": [],
          "selling_price_val": "ASK",
          "selling_date": "--",
          "stock_flag_val": "\u4ef2\u4ecb",
          "sales_status_val": "In stock"
        },
        {
          "id": 626,
          "product_type": 2,
          "type_id": 9,
          "size": "Large",
          "height": 70,
          "width": 120,
          "around": "--",
          "image_path_1": "/static/assets/img/img1.jpg",
          "image_path_2": "",
          "image_path_3": "",
          "image_path_4": "",
          "image_path_5": "",
          "sales_status": 1,
          "sales_status_comment": "\u4e0a\u6d77",
          "feature": [],
          "selling_price_val": "ASK",
          "selling_date": "--",
          "stock_flag_val": "\u4ef2\u4ecb",
          "sales_status_val": "In stock"
        },
        {
          "id": 625,
          "product_type": 2,
          "type_id": 2,
          "size": "Large",
          "height": 160,
          "width": 110,
          "around": "--",
          "image_path_1": "/static/assets/img/img1.jpg",
          "image_path_2": "/static/assets/img/img2.jpg",
          "image_path_3": "",
          "image_path_4": "",
          "image_path_5": "",
          "sales_status": 1,
          "sales_status_comment": "\u5ca1\u5c71\u3000\u5927\u5cf6\u3055\u3093",
          "feature": [],
          "selling_price_val": "ASK",
          "selling_date": "--",
          "stock_flag_val": "\u4ef2\u4ecb",
          "sales_status_val": "In stock"
        },
        {
          "id": 623,
          "product_type": 2,
          "type_id": 2,
          "size": "Large",
          "height": 110,
          "width": 60,
          "around": "--",
          "image_path_1": "/static/assets/img/img1.jpg",
          "image_path_2": "/static/assets/img/img2.jpg",
          "image_path_3": "",
          "image_path_4": "",
          "image_path_5": "",
          "sales_status": 1,
          "sales_status_comment": "\u5ca1\u5c71\u3000\u5927\u5cf6\u3055\u3093",
          "feature": [],
          "selling_price_val": "ASK",
          "selling_date": "--",
          "stock_flag_val": "\u4ef2\u4ecb",
          "sales_status_val": "In stock"
        },
        {
          "id": 621,
          "product_type": 1,
          "type_id": 7,
          "size": "Large",
          "height": 300,
          "width": 180,
          "around": 60,
          "image_path_1": "/static/assets/img/img1.jpg",
          "image_path_2": "/static/assets/img/img2.jpg",
          "image_path_3": "",
          "image_path_4": "",
          "image_path_5": "",
          "sales_status": 1,
          "sales_status_comment": "50\u672c\u30bb\u30c3\u30c8\u3001\uff15\u672c\u7a0b\u5ea6\u306f\u304b\u306a\u308a\u3044\u3044\u5bd2\u693f\u3000\u30bb\u30c3\u30c8\u3067\uff20\uff11\uff15\u4e07\uff0b\u30d4\u30fc\u30c8\u3001\u6839\u6d17\u3044\uff12\u4e07\u3002\u4e2d\u56fd\u306a\u3089\u6301\u3063\u3066\u884c\u3063\u3066\uff20\uff14\u4e07\u5143",
          "feature": [],
          "selling_price_val": "ASK",
          "selling_date": "--",
          "stock_flag_val": "\u4ef2\u4ecb",
          "sales_status_val": "In stock"
        }
      ]
    },
    "first_page_url": "https://dashu.2-d.jp?page=1",
    "from": 1,
    "last_page": 40,
    "last_page_url": "https://dashu.2-d.jp?page=40",
    "next_page_url": "https://dashu.2-d.jp?page=2",
    "path": "https://dashu.2-d.jp",
    "per_page": 10,
    "prev_page_url": null,
    "to": 11,
    "total": 392
  },
  "specialList": [
    {
      "id": 648,
      "control_no": "No-648",
      "type_id": 1,
      "size": "Large",
      "height": "--",
      "width": "--",
      "around": "--",
      "image_path_1": "https://images.unsplash.com/photo-1534188753412-3e26d0d618d6?ixlib=rb-1.2.1&ixid=eyJhcHBfaWQiOjEyMDd9&auto=format&fit=crop&w=2434&q=80",
      "image_path_2": "https://images.unsplash.com/photo-1531012451721-432c0ae74527?ixlib=rb-1.2.1&ixid=eyJhcHBfaWQiOjEyMDd9&auto=format&fit=crop&w=2134&q=80",
      "image_path_3": "https://images.unsplash.com/photo-1534188753412-3e26d0d618d6?ixlib=rb-1.2.1&ixid=eyJhcHBfaWQiOjEyMDd9&auto=format&fit=crop&w=2434&q=80",
      "image_path_4": "https://images.unsplash.com/photo-1531012451721-432c0ae74527?ixlib=rb-1.2.1&ixid=eyJhcHBfaWQiOjEyMDd9&auto=format&fit=crop&w=2134&q=80",
      "image_path_5": "",
      "remarks": null,
      "load_place": 2,
      "selling_price_zh": null,
      "selling_price_vi": null,
      "created_at": "2019-12-25 15:42:24",
      "updated_at": "2020-04-06 23:57:47",
      "product_id": 648,
      "product_type": 1,
      "shipment_control_no": null,
      "purchase_price": null,
      "sales_status": 3,
      "sales_status_comment": null,
      "selling_price": null,
      "register_user_account_id": 6,
      "selling_date": "--",
      "purchaser": null,
      "stock_flag": 1,
      "feature": {
        "1": "Special",
        "3": "Nebari",
        "6": "Rough ",
        "9": "Many leaves",
        "10": "Low tree"
      },
      "selling_price_val": "ASK",
      "stock_flag_val": "\u5728\u5eab",
      "sales_status_val": "Sold out"
    },
    {
      "id": 635,
      "control_no": "KT-635",
      "type_id": 7,
      "size": "Large",
      "height": 350,
      "width": 220,
      "around": 75,
      "image_path_1": "https://images.unsplash.com/photo-1534188753412-3e26d0d618d6?ixlib=rb-1.2.1&ixid=eyJhcHBfaWQiOjEyMDd9&auto=format&fit=crop&w=2434&q=80",
      "image_path_2": "https://images.unsplash.com/photo-1531012451721-432c0ae74527?ixlib=rb-1.2.1&ixid=eyJhcHBfaWQiOjEyMDd9&auto=format&fit=crop&w=2134&q=80",
      "image_path_3": "",
      "image_path_4": "",
      "image_path_5": "",
      "remarks": null,
      "load_place": null,
      "selling_price_zh": null,
      "selling_price_vi": null,
      "created_at": "2018-12-20 10:52:40",
      "updated_at": "2019-10-14 17:53:07",
      "product_id": 635,
      "product_type": 1,
      "shipment_control_no": null,
      "purchase_price": null,
      "sales_status": 1,
      "sales_status_comment": "\u9234\u9e7f \u9d5c\u98fc\u3055\u3093",
      "selling_price": null,
      "register_user_account_id": 3,
      "selling_date": "--",
      "purchaser": null,
      "stock_flag": 0,
      "feature": {
        "1": "Special"
      },
      "selling_price_val": "ASK",
      "stock_flag_val": "\u4ef2\u4ecb",
      "sales_status_val": "In stock"
    },
    {
      "id": 634,
      "control_no": "KT-634",
      "type_id": 7,
      "size": "Large",
      "height": 400,
      "width": 200,
      "around": 83,
      "image_path_1": "https://images.unsplash.com/photo-1534188753412-3e26d0d618d6?ixlib=rb-1.2.1&ixid=eyJhcHBfaWQiOjEyMDd9&auto=format&fit=crop&w=2434&q=80",
      "image_path_2": "https://images.unsplash.com/photo-1531012451721-432c0ae74527?ixlib=rb-1.2.1&ixid=eyJhcHBfaWQiOjEyMDd9&auto=format&fit=crop&w=2134&q=80",
      "image_path_3": "https://images.unsplash.com/photo-1534188753412-3e26d0d618d6?ixlib=rb-1.2.1&ixid=eyJhcHBfaWQiOjEyMDd9&auto=format&fit=crop&w=2434&q=80",
      "image_path_4": "https://images.unsplash.com/photo-1531012451721-432c0ae74527?ixlib=rb-1.2.1&ixid=eyJhcHBfaWQiOjEyMDd9&auto=format&fit=crop&w=2134&q=80",
      "image_path_5": "",
      "remarks": null,
      "load_place": null,
      "selling_price_zh": null,
      "selling_price_vi": null,
      "created_at": "2018-12-20 10:49:51",
      "updated_at": "2019-10-14 17:52:32",
      "product_id": 634,
      "product_type": 1,
      "shipment_control_no": null,
      "purchase_price": null,
      "sales_status": 3,
      "sales_status_comment": "\u9234\u9e7f \u9d5c\u98fc\u3055\u3093",
      "selling_price": null,
      "register_user_account_id": 3,
      "selling_date": "--",
      "purchaser": null,
      "stock_flag": 0,
      "feature": {
        "1": "Special"
      },
      "selling_price_val": "ASK",
      "stock_flag_val": "\u4ef2\u4ecb",
      "sales_status_val": "Sold out"
    },
    {
      "id": 633,
      "control_no": "KT-633",
      "type_id": 7,
      "size": "Large",
      "height": 500,
      "width": 400,
      "around": 145,
      "image_path_1": "https://images.unsplash.com/photo-1534188753412-3e26d0d618d6?ixlib=rb-1.2.1&ixid=eyJhcHBfaWQiOjEyMDd9&auto=format&fit=crop&w=2434&q=80",
      "image_path_2": "https://images.unsplash.com/photo-1531012451721-432c0ae74527?ixlib=rb-1.2.1&ixid=eyJhcHBfaWQiOjEyMDd9&auto=format&fit=crop&w=2134&q=80",
      "image_path_3": "https://images.unsplash.com/photo-1534188753412-3e26d0d618d6?ixlib=rb-1.2.1&ixid=eyJhcHBfaWQiOjEyMDd9&auto=format&fit=crop&w=2434&q=80",
      "image_path_4": "",
      "image_path_5": "",
      "remarks": "\u7279\u5927",
      "load_place": null,
      "selling_price_zh": null,
      "selling_price_vi": null,
      "created_at": "2018-12-20 10:38:00",
      "updated_at": "2018-12-20 10:38:00",
      "product_id": 633,
      "product_type": 1,
      "shipment_control_no": null,
      "purchase_price": null,
      "sales_status": 1,
      "sales_status_comment": "\u9234\u9e7f \u9d5c\u98fc\u3055\u3093",
      "selling_price": null,
      "register_user_account_id": 3,
      "selling_date": "--",
      "purchaser": null,
      "stock_flag": 0,
      "feature": {
        "1": "Special",
        "6": "Rough "
      },
      "selling_price_val": "ASK",
      "stock_flag_val": "\u4ef2\u4ecb",
      "sales_status_val": "In stock"
    },
    {
      "id": 632,
      "control_no": "KT-632",
      "type_id": 7,
      "size": "Large",
      "height": 500,
      "width": 300,
      "around": 115,
      "image_path_1": "https://images.unsplash.com/photo-1534188753412-3e26d0d618d6?ixlib=rb-1.2.1&ixid=eyJhcHBfaWQiOjEyMDd9&auto=format&fit=crop&w=2434&q=80",
      "image_path_2": "https://images.unsplash.com/photo-1531012451721-432c0ae74527?ixlib=rb-1.2.1&ixid=eyJhcHBfaWQiOjEyMDd9&auto=format&fit=crop&w=2134&q=80",
      "image_path_3": "https://images.unsplash.com/photo-1534188753412-3e26d0d618d6?ixlib=rb-1.2.1&ixid=eyJhcHBfaWQiOjEyMDd9&auto=format&fit=crop&w=2434&q=80",
      "image_path_4": "",
      "image_path_5": "",
      "remarks": null,
      "load_place": null,
      "selling_price_zh": null,
      "selling_price_vi": null,
      "created_at": "2018-12-20 09:19:03",
      "updated_at": "2018-12-20 09:19:03",
      "product_id": 632,
      "product_type": 1,
      "shipment_control_no": null,
      "purchase_price": 64,
      "sales_status": 1,
      "sales_status_comment": "\u9234\u9e7f \u9d5c\u98fc\u3055\u3093",
      "selling_price": null,
      "register_user_account_id": 3,
      "selling_date": "--",
      "purchaser": null,
      "stock_flag": 0,
      "feature": {
        "1": "Special"
      },
      "selling_price_val": "ASK",
      "stock_flag_val": "\u4ef2\u4ecb",
      "sales_status_val": "In stock"
    }
  ],
  "param": [],
  "featureList": {
    "1": "Special",
    "2": "Gate covering",
    "3": "Nebari",
    "4": "Informal upright",
    "5": "Cascade",
    "6": "Rough ",
    "7": "shape of Bonsai",
    "8": "Straight",
    "9": "Many leaves",
    "10": "Low tree",
    "99": "sale"
  },
  "typeList": {
    "1": "Podocarpus",
    "2": "Black Pine",
    "3": "White Pine",
    "4": "Red Pine",
    "5": "Chinese juniper",
    "6": "Maple",
    "7": "Tsubaki",
    "8": "Satsuki azalea",
    "9": "Other"
  },
  "placeList": {
    "1": "\u672a\u5b9a",
    "2": "\u5343\u8449\u571f\u5834",
    "3": "\u6a2a\u6d5c\u6e2f",
    "4": "\u540d\u53e4\u5c4b\u6e2f",
    "5": "\u535a\u591a\u6e2f"
  },
  "lang": "en"
}
